[api-updater (non-obsolete-error-filter)] 22/4/2021 16:51:18 : Starting /Applications/Unity/Hub/Editor/2020.3.3f1/Unity.app/Contents/Tools/ScriptUpdater/APIUpdater.NonObsoleteApiUpdaterDetector.exe
[api-updater (non-obsolete-error-filter)] 
----------------------------------
jit/startup time      : 546,15ms
moved types parse time: 63ms
candidates parse time : 1ms
C# parse time         : 328ms
candidates check time : 44ms
console write time    : 1ms

[api-updater (non-obsolete-error-filter)] 22/4/2021 17:58:50 : Starting /Applications/Unity/Hub/Editor/2020.3.3f1/Unity.app/Contents/Tools/ScriptUpdater/APIUpdater.NonObsoleteApiUpdaterDetector.exe
[api-updater (non-obsolete-error-filter)] 
----------------------------------
jit/startup time      : 183,419ms
moved types parse time: 63ms
candidates parse time : 1ms
C# parse time         : 321ms
candidates check time : 36ms
console write time    : 1ms

[api-updater (non-obsolete-error-filter)] 5/5/2021 21:42:26 : Starting /Applications/Unity/Hub/Editor/2020.3.3f1/Unity.app/Contents/Tools/ScriptUpdater/APIUpdater.NonObsoleteApiUpdaterDetector.exe
[api-updater (non-obsolete-error-filter)] 
----------------------------------
jit/startup time      : 550,516ms
moved types parse time: 65ms
candidates parse time : 1ms
C# parse time         : 329ms
candidates check time : 44ms
console write time    : 1ms

[api-updater (non-obsolete-error-filter)] 5/5/2021 21:42:59 : Starting /Applications/Unity/Hub/Editor/2020.3.3f1/Unity.app/Contents/Tools/ScriptUpdater/APIUpdater.NonObsoleteApiUpdaterDetector.exe
[api-updater (non-obsolete-error-filter)] 
----------------------------------
jit/startup time      : 60,682ms
moved types parse time: 49ms
candidates parse time : 1ms
C# parse time         : 284ms
candidates check time : 43ms
console write time    : 0ms

[api-updater (non-obsolete-error-filter)] 5/5/2021 21:43:33 : Starting /Applications/Unity/Hub/Editor/2020.3.3f1/Unity.app/Contents/Tools/ScriptUpdater/APIUpdater.NonObsoleteApiUpdaterDetector.exe
[api-updater (non-obsolete-error-filter)] 
----------------------------------
jit/startup time      : 50,539ms
moved types parse time: 48ms
candidates parse time : 1ms
C# parse time         : 215ms
candidates check time : 41ms
console write time    : 0ms

[api-updater (non-obsolete-error-filter)] 5/5/2021 21:44:23 : Starting /Applications/Unity/Hub/Editor/2020.3.3f1/Unity.app/Contents/Tools/ScriptUpdater/APIUpdater.NonObsoleteApiUpdaterDetector.exe
[api-updater (non-obsolete-error-filter)] 
----------------------------------
jit/startup time      : 123,367ms
moved types parse time: 58ms
candidates parse time : 1ms
C# parse time         : 304ms
candidates check time : 46ms
console write time    : 1ms

[api-updater (non-obsolete-error-filter)] 7/5/2021 15:17:32 : Starting /Applications/Unity/Hub/Editor/2020.3.3f1/Unity.app/Contents/Tools/ScriptUpdater/APIUpdater.NonObsoleteApiUpdaterDetector.exe
[api-updater (non-obsolete-error-filter)] 
----------------------------------
jit/startup time      : 524,347ms
moved types parse time: 65ms
candidates parse time : 1ms
C# parse time         : 317ms
candidates check time : 31ms
console write time    : 1ms

[api-updater (non-obsolete-error-filter)] 7/5/2021 15:17:59 : Starting /Applications/Unity/Hub/Editor/2020.3.3f1/Unity.app/Contents/Tools/ScriptUpdater/APIUpdater.NonObsoleteApiUpdaterDetector.exe
[api-updater (non-obsolete-error-filter)] 
----------------------------------
jit/startup time      : 170,292ms
moved types parse time: 63ms
candidates parse time : 1ms
C# parse time         : 303ms
candidates check time : 33ms
console write time    : 1ms

[api-updater (non-obsolete-error-filter)] 10/5/2021 16:50:43 : Starting /Applications/Unity/Hub/Editor/2020.3.3f1/Unity.app/Contents/Tools/ScriptUpdater/APIUpdater.NonObsoleteApiUpdaterDetector.exe
[api-updater (non-obsolete-error-filter)] 
----------------------------------
jit/startup time      : 566,601ms
moved types parse time: 63ms
candidates parse time : 1ms
C# parse time         : 370ms
candidates check time : 40ms
console write time    : 1ms

[api-updater (non-obsolete-error-filter)] 10/5/2021 16:55:37 : Starting /Applications/Unity/Hub/Editor/2020.3.3f1/Unity.app/Contents/Tools/ScriptUpdater/APIUpdater.NonObsoleteApiUpdaterDetector.exe
[api-updater (non-obsolete-error-filter)] 
----------------------------------
jit/startup time      : 129,424ms
moved types parse time: 67ms
candidates parse time : 1ms
C# parse time         : 339ms
candidates check time : 40ms
console write time    : 1ms

[api-updater (non-obsolete-error-filter)] 11/5/2021 18:02:22 : Starting /Applications/Unity/Hub/Editor/2020.3.3f1/Unity.app/Contents/Tools/ScriptUpdater/APIUpdater.NonObsoleteApiUpdaterDetector.exe
[api-updater (non-obsolete-error-filter)] 
----------------------------------
jit/startup time      : 548,427ms
moved types parse time: 58ms
candidates parse time : 1ms
C# parse time         : 289ms
candidates check time : 31ms
console write time    : 0ms

[api-updater (non-obsolete-error-filter)] 20/05/2021 02:47:05 : Starting D:/Unity/2020.3.3f1/Editor/Data/Tools/ScriptUpdater/APIUpdater.NonObsoleteApiUpdaterDetector.exe
[api-updater (non-obsolete-error-filter)] 
----------------------------------
jit/startup time      : 998.8863ms
moved types parse time: 76ms
candidates parse time : 1ms
C# parse time         : 677ms
candidates check time : 34ms
console write time    : 1ms

[api-updater (non-obsolete-error-filter)] 20/05/2021 02:52:24 : Starting D:/Unity/2020.3.3f1/Editor/Data/Tools/ScriptUpdater/APIUpdater.NonObsoleteApiUpdaterDetector.exe
[api-updater (non-obsolete-error-filter)] 
----------------------------------
jit/startup time      : 91.9965ms
moved types parse time: 74ms
candidates parse time : 1ms
C# parse time         : 218ms
candidates check time : 33ms
console write time    : 0ms

[api-updater (non-obsolete-error-filter)] 20/05/2021 02:53:01 : Starting D:/Unity/2020.3.3f1/Editor/Data/Tools/ScriptUpdater/APIUpdater.NonObsoleteApiUpdaterDetector.exe
[api-updater (non-obsolete-error-filter)] 
----------------------------------
jit/startup time      : 90.9992ms
moved types parse time: 72ms
candidates parse time : 1ms
C# parse time         : 218ms
candidates check time : 31ms
console write time    : 0ms

[api-updater (non-obsolete-error-filter)] 20/05/2021 02:53:13 : Starting D:/Unity/2020.3.3f1/Editor/Data/Tools/ScriptUpdater/APIUpdater.NonObsoleteApiUpdaterDetector.exe
[api-updater (non-obsolete-error-filter)] 
----------------------------------
jit/startup time      : 95.9976ms
moved types parse time: 71ms
candidates parse time : 1ms
C# parse time         : 226ms
candidates check time : 33ms
console write time    : 0ms

[api-updater (non-obsolete-error-filter)] 20/05/2021 02:56:31 : Starting D:/Unity/2020.3.3f1/Editor/Data/Tools/ScriptUpdater/APIUpdater.NonObsoleteApiUpdaterDetector.exe
[api-updater (non-obsolete-error-filter)] 
----------------------------------
jit/startup time      : 92.9978ms
moved types parse time: 75ms
candidates parse time : 1ms
C# parse time         : 221ms
candidates check time : 33ms
console write time    : 0ms

[api-updater (non-obsolete-error-filter)] 20/05/2021 02:57:49 : Starting D:/Unity/2020.3.3f1/Editor/Data/Tools/ScriptUpdater/APIUpdater.NonObsoleteApiUpdaterDetector.exe
[api-updater (non-obsolete-error-filter)] 
----------------------------------
jit/startup time      : 95.9961ms
moved types parse time: 73ms
candidates parse time : 1ms
C# parse time         : 237ms
candidates check time : 33ms
console write time    : 0ms

[api-updater (non-obsolete-error-filter)] 20/05/2021 02:58:03 : Starting D:/Unity/2020.3.3f1/Editor/Data/Tools/ScriptUpdater/APIUpdater.NonObsoleteApiUpdaterDetector.exe
[api-updater (non-obsolete-error-filter)] 
----------------------------------
jit/startup time      : 95.6452ms
moved types parse time: 76ms
candidates parse time : 1ms
C# parse time         : 223ms
candidates check time : 32ms
console write time    : 0ms

[api-updater (non-obsolete-error-filter)] 20/05/2021 02:58:32 : Starting D:/Unity/2020.3.3f1/Editor/Data/Tools/ScriptUpdater/APIUpdater.NonObsoleteApiUpdaterDetector.exe
[api-updater (non-obsolete-error-filter)] 
----------------------------------
jit/startup time      : 101.9952ms
moved types parse time: 67ms
candidates parse time : 1ms
C# parse time         : 217ms
candidates check time : 34ms
console write time    : 0ms

